{
  "parameters": {
     "mode": "advanced",
     "detect_os": "true",
     "wipe_disks": ["null"],
     "wipe_parts": ["null"],
     "os_disk": "vda",
     "parts": ["vda1", "vda2", "vda3", "vda4"],
     "mountpts": ["/boot", "/", "swap", "null"],
     "p_sizes": ["1024", "12288", "4096", "512"],
     "filesystems": ["fat32", "ext4", "swap", "ext4", "fat32"]

  }
}
